<?xml version="1.0" encoding="UTF-8" standalone="no"?>
<!-- Created with Inkscape (http://www.inkscape.org/) -->

<svg
   xmlns:dc="http://purl.org/dc/elements/1.1/"
   xmlns:cc="http://creativecommons.org/ns#"
   xmlns:rdf="http://www.w3.org/1999/02/22-rdf-syntax-ns#"
   xmlns:svg="http://www.w3.org/2000/svg"
   xmlns="http://www.w3.org/2000/svg"
   xmlns:sodipodi="http://sodipodi.sourceforge.net/DTD/sodipodi-0.dtd"
   xmlns:inkscape="http://www.inkscape.org/namespaces/inkscape"
   id="svg2"
   version="1.1"
   inkscape:version="0.48.4 r9939"
   width="1278.75"
   height="957.5"
   xml:space="preserve"
   sodipodi:docname="DataEditor.svg"
   inkscape:export-filename="C:\Nehemie\Archeologie\Article\WohinDaten\WohinDaten\Material\Bilder\DataEditor.png"
   inkscape:export-xdpi="600"
   inkscape:export-ydpi="600"><metadata
     id="metadata8"><rdf:RDF><cc:Work
         rdf:about=""><dc:format>image/svg+xml</dc:format><dc:type
           rdf:resource="http://purl.org/dc/dcmitype/StillImage" /><dc:title></dc:title></cc:Work></rdf:RDF></metadata><defs
     id="defs6"><clipPath
       clipPathUnits="userSpaceOnUse"
       id="clipPath16"><path
         d="M 0,766 1023,766 1023,0 0,0 0,766 z"
         id="path18" /></clipPath><clipPath
       clipPathUnits="userSpaceOnUse"
       id="clipPath60"><path
         d="M 0,766 1023,766 1023,0 0,0 0,766 z"
         id="path62" /></clipPath><clipPath
       clipPathUnits="userSpaceOnUse"
       id="clipPath80"><path
         d="M 0,766 1023,766 1023,0 0,0 0,766 z"
         id="path82" /></clipPath><clipPath
       clipPathUnits="userSpaceOnUse"
       id="clipPath100"><path
         d="M 0,766 1023,766 1023,0 0,0 0,766 z"
         id="path102" /></clipPath><clipPath
       clipPathUnits="userSpaceOnUse"
       id="clipPath128"><path
         d="M 0,766 1023,766 1023,0 0,0 0,766 z"
         id="path130" /></clipPath></defs><sodipodi:namedview
     pagecolor="#ffffff"
     bordercolor="#666666"
     borderopacity="1"
     objecttolerance="10"
     gridtolerance="10"
     guidetolerance="10"
     inkscape:pageopacity="0"
     inkscape:pageshadow="2"
     inkscape:window-width="1600"
     inkscape:window-height="853"
     id="namedview4"
     showgrid="false"
     inkscape:zoom="1.4874571"
     inkscape:cx="543.70079"
     inkscape:cy="544.00736"
     inkscape:window-x="-4"
     inkscape:window-y="-4"
     inkscape:window-maximized="1"
     inkscape:current-layer="g10" /><g
     id="g10"
     inkscape:groupmode="layer"
     inkscape:label="DataEditor"
     transform="matrix(1.25,0,0,-1.25,0,957.5)"><g
       id="g12"><g
         id="g14"
         clip-path="url(#clipPath16)"><g
           id="g20"
           transform="translate(532.0532,597.8149)"><path
             d="M 0,0 C 64.526,13.911 300.657,55.047 238.417,-103.888"
             style="fill:none;stroke:#2d2c2e;stroke-opacity:1;stroke-width:2;stroke-linecap:butt;stroke-linejoin:miter;stroke-miterlimit:10;stroke-dasharray:none"
             id="path22" /></g><g
           id="g24"
           transform="translate(535.5728,598.5376)"><path
             d="M 0,0 2.688,7.995 2.412,8.1 -8.021,0.959 c -3.795,-1.78 -7.59,-3.56 -11.385,-5.341 4.192,0.023 8.383,0.047 12.575,0.07 L 5.659,-6.277 5.872,-6.103 0,0 z"
             style="fill:#2d2c2e;fill-opacity:1;fill-rule:nonzero;stroke:none"
             id="path26" /></g><g
           id="g28"
           transform="translate(771.7646,497.2627)"><path
             d="M 0,0 8.346,1.219 8.399,0.928 -0.488,-8.063 c -2.428,-3.417 -4.857,-6.833 -7.286,-10.249 0.77,4.12 1.542,8.24 2.311,12.36 L -5.167,6.687 -4.957,6.866 0,0 z"
             style="fill:#2d2c2e;fill-opacity:1;fill-rule:nonzero;stroke:none"
             id="path30" /></g><g
           id="g32"
           transform="translate(268.127,315.7266)"><path
             d="M 0,0 C -72.851,33.568 -372.771,186.06 16.39,259.367"
             style="fill:none;stroke:#2d2c2e;stroke-opacity:1;stroke-width:2;stroke-linecap:butt;stroke-linejoin:miter;stroke-miterlimit:10;stroke-dasharray:none"
             id="path34" /></g><g
           id="g36"
           transform="translate(264.8682,317.2407)"><path
             d="M 0,0 -6.949,-4.781 -6.791,-5.03 5.84,-5.582 c 4.104,-0.855 8.207,-1.709 12.311,-2.562 -3.366,2.497 -6.733,4.995 -10.099,7.493 L -0.758,8.417 -1.033,8.405 0,0 z"
             style="fill:#2d2c2e;fill-opacity:1;fill-rule:nonzero;stroke:none"
             id="path38" /></g><g
           id="g40"
           transform="translate(281.019,574.2285)"><path
             d="M 0,0 -5.669,6.245 -5.459,6.452 6.963,4.097 C 11.153,3.988 15.343,3.88 19.534,3.771 15.685,2.111 11.836,0.451 7.987,-1.21 L -2.665,-8.02 -2.93,-7.945 0,0 z"
             style="fill:#2d2c2e;fill-opacity:1;fill-rule:nonzero;stroke:none"
             id="path42" /></g><g
           id="g44"
           transform="translate(487.2207,553.7637)"><path
             d="m 0,0 c 0,-3.245 -4.962,-5.876 -11.084,-5.876 l -140.398,0 c -6.122,0 -11.084,2.631 -11.084,5.876 l 0,48.473 c 0,3.245 4.962,5.876 11.084,5.876 l 140.398,0 C -4.962,54.349 0,51.718 0,48.473 L 0,0 z"
             style="fill:#ffffff;fill-opacity:1;fill-rule:nonzero;stroke:none"
             id="path46" /></g><g
           id="g48"
           transform="translate(487.2207,553.7637)"><path
             d="m 0,0 c 0,-3.245 -4.962,-5.876 -11.084,-5.876 l -140.398,0 c -6.122,0 -11.084,2.631 -11.084,5.876 l 0,48.473 c 0,3.245 4.962,5.876 11.084,5.876 l 140.398,0 C -4.962,54.349 0,51.718 0,48.473 L 0,0 z"
             style="fill:none;stroke:#2d2c2e;stroke-opacity:1;stroke-width:1;stroke-linecap:butt;stroke-linejoin:miter;stroke-miterlimit:10;stroke-dasharray:none"
             id="path50" /></g></g></g><text
       transform="matrix(0.96773889,0,0,-1,340.5635,567.4336)"
       id="text52"><tspan
         style="font-size:36px;font-variant:normal;font-weight:normal;font-stretch:normal;writing-mode:lr-tb;fill:#2d2c2e;fill-opacity:1;fill-rule:nonzero;stroke:none;font-family:Myriad Pro;-inkscape-font-specification:MyriadPro-Regular"
         sodipodi:role="line"
         id="tspan54"
         x="0"
         y="0">Collector</tspan></text>
<g
       id="g56"
       transform="matrix(1.0437106,0,0,1,-22.084505,0)"><g
         id="g58"
         clip-path="url(#clipPath60)"><g
           id="g64"
           transform="translate(504.7437,262.8672)"><path
             d="m 0,0 c 0,-3.309 -6.354,-5.99 -14.193,-5.99 l -179.787,0 c -7.84,0 -14.194,2.681 -14.194,5.99 l 0,58.904 c 0,3.309 6.354,5.991 14.194,5.991 l 179.787,0 C -6.354,64.895 0,62.213 0,58.904 L 0,0 z"
             style="fill:#ffffff;fill-opacity:1;fill-rule:nonzero;stroke:none"
             id="path66"
             inkscape:connector-curvature="0" /></g><g
           id="g68"
           transform="translate(504.7437,262.8672)"><path
             d="m 0,0 c 0,-3.309 -6.354,-5.99 -14.193,-5.99 l -179.787,0 c -7.84,0 -14.194,2.681 -14.194,5.99 l 0,58.904 c 0,3.309 6.354,5.991 14.194,5.991 l 179.787,0 C -6.354,64.895 0,62.213 0,58.904 L 0,0 z"
             style="fill:none;stroke:#2d2c2e;stroke-width:1;stroke-linecap:butt;stroke-linejoin:miter;stroke-miterlimit:10;stroke-opacity:1;stroke-dasharray:none"
             id="path70"
             inkscape:connector-curvature="0" /></g></g></g><text
       transform="scale(0.98373724,-1.0165316)"
       id="text72"
       x="297.47351"
       y="-277.17081"
       style="font-size:11.80484676px"><tspan
         style="font-size:35.41453934px;font-variant:normal;font-weight:normal;font-stretch:normal;writing-mode:lr-tb;fill:#2d2c2e;fill-opacity:1;fill-rule:nonzero;stroke:none;font-family:Myriad Pro;-inkscape-font-specification:MyriadPro-Regular"
         sodipodi:role="line"
         id="tspan74"
         x="297.47351"
         y="-277.17081">Management</tspan></text>
<g
       id="g76"><g
         id="g78"
         clip-path="url(#clipPath80)"><g
           id="g84"
           transform="translate(775.7031,417.6406)"><path
             d="m 0,0 c 0,-2.802 -2.689,-5.073 -6.008,-5.073 l -94.114,0 c -3.317,0 -6.007,2.271 -6.007,5.073 l 0,46.502 c 0,2.802 2.69,5.073 6.007,5.073 l 94.114,0 C -2.689,51.575 0,49.304 0,46.502 L 0,0 z"
             style="fill:#ffffff;fill-opacity:1;fill-rule:nonzero;stroke:none"
             id="path86" /></g><g
           id="g88"
           transform="translate(775.7031,417.6406)"><path
             d="m 0,0 c 0,-2.802 -2.689,-5.073 -6.008,-5.073 l -94.114,0 c -3.317,0 -6.007,2.271 -6.007,5.073 l 0,46.502 c 0,2.802 2.69,5.073 6.007,5.073 l 94.114,0 C -2.689,51.575 0,49.304 0,46.502 L 0,0 z"
             style="fill:none;stroke:#2d2c2e;stroke-opacity:1;stroke-width:1;stroke-linecap:butt;stroke-linejoin:miter;stroke-miterlimit:10;stroke-dasharray:none"
             id="path90" /></g></g></g><text
       transform="matrix(0.96773889,0,0,-1,679.3174,430.3262)"
       id="text92"><tspan
         style="font-size:36px;font-variant:normal;font-weight:normal;font-stretch:normal;writing-mode:lr-tb;fill:#2d2c2e;fill-opacity:1;fill-rule:nonzero;stroke:none;font-family:Myriad Pro;-inkscape-font-specification:MyriadPro-Regular"
         sodipodi:role="line"
         id="tspan94"
         x="0"
         y="0">Editor</tspan></text>
<g
       id="g96"><g
         id="g98"
         clip-path="url(#clipPath100)"><g
           id="g104"
           transform="translate(527.6421,282.3848)"><path
             d="M 0,0 C 64.526,-13.91 300.657,-55.048 238.417,103.888"
             style="fill:none;stroke:#2d2c2e;stroke-opacity:1;stroke-width:2;stroke-linecap:butt;stroke-linejoin:miter;stroke-miterlimit:10;stroke-dasharray:none"
             id="path106" /></g><g
           id="g108"
           transform="translate(531.1616,281.6621)"><path
             d="M 0,0 5.863,6.063 5.659,6.277 -6.831,4.313 c -4.191,0.024 -8.383,0.047 -12.575,0.07 3.795,-1.78 7.59,-3.561 11.385,-5.341 L 2.412,-8.1 2.679,-8.033 0,0 z"
             style="fill:#2d2c2e;fill-opacity:1;fill-rule:nonzero;stroke:none"
             id="path110" /></g><g
           id="g112"
           transform="translate(767.3535,382.937)"><path
             d="m 0,0 -4.921,-6.851 -0.246,0.164 -0.296,12.639 c -0.77,4.12 -1.541,8.24 -2.311,12.36 2.428,-3.416 4.857,-6.833 7.286,-10.249 L 8.399,-0.928 8.383,-1.203 0,0 z"
             style="fill:#2d2c2e;fill-opacity:1;fill-rule:nonzero;stroke:none"
             id="path114" /></g><g
           id="g116"
           transform="translate(532.6509,404.0366)"><path
             d="M 0,0 -90.007,-0.956 -135.436,38.75 -90.861,79.413 -0.854,80.369 44.576,40.662 0,0 z"
             style="fill:none;stroke:#222222;stroke-opacity:1;stroke-width:2;stroke-linecap:butt;stroke-linejoin:miter;stroke-miterlimit:10;stroke-dasharray:none"
             id="path118" /></g></g></g><text
       transform="scale(0.98373724,-1.0165316)"
       id="text120"
       x="422.55408"
       y="-426.13214"
       style="font-size:11.80484676px"><tspan
         style="font-size:35.41453934px;font-variant:normal;font-weight:normal;font-stretch:normal;writing-mode:lr-tb;fill:#2d2c2e;fill-opacity:1;fill-rule:nonzero;stroke:none;font-family:Myriad Pro;-inkscape-font-specification:MyriadPro-Regular"
         sodipodi:role="line"
         id="tspan122"
         x="422.55408"
         y="-426.13214">Raw data</tspan></text>
<g
       id="g124"><g
         id="g126"
         clip-path="url(#clipPath128)"><g
           id="g132"
           transform="translate(289,344.1196)"><path
             d="M 0,0 C 0,0 -46.635,69.185 64.707,77.075"
             style="fill:none;stroke:#222222;stroke-opacity:1;stroke-width:2;stroke-linecap:butt;stroke-linejoin:miter;stroke-miterlimit:10;stroke-dasharray:none"
             id="path134" /></g><g
           id="g136"
           transform="translate(350.1304,420.8892)"><path
             d="M 0,0 -4.736,6.979 -4.499,7.154 7.469,3.078 C 11.603,2.383 15.736,1.687 19.87,0.991 15.826,-0.112 11.782,-1.215 7.738,-2.319 L -3.765,-7.566 -4.017,-7.455 0,0 z"
             style="fill:#222222;fill-opacity:1;fill-rule:nonzero;stroke:none"
             id="path138" /></g><g
           id="g140"
           transform="translate(492.604,566.2588)"><path
             d="M 0,0 C 0,0 106.016,15.693 57.901,-67.621"
             style="fill:none;stroke:#222222;stroke-opacity:1;stroke-width:2;stroke-linecap:butt;stroke-linejoin:miter;stroke-miterlimit:10;stroke-dasharray:none"
             id="path142" /></g><g
           id="g144"
           transform="translate(552.2764,501.7612)"><path
             d="M 0,0 8.434,-0.093 8.442,-0.388 -1.735,-7.891 c -2.93,-2.997 -5.859,-5.995 -8.79,-8.992 1.402,3.95 2.803,7.901 4.204,11.852 L -4.065,7.409 -3.831,7.552 0,0 z"
             style="fill:#222222;fill-opacity:1;fill-rule:nonzero;stroke:none"
             id="path146" /></g><g
           id="g148"
           transform="translate(657.71,385.8354)"><path
             d="M 0,0 C -24.879,-21.283 -83.447,-59.813 -122.71,7.165"
             style="fill:none;stroke:#222222;stroke-opacity:1;stroke-width:2;stroke-linecap:butt;stroke-linejoin:miter;stroke-miterlimit:10;stroke-dasharray:none"
             id="path150" /></g><g
           id="g152"
           transform="translate(654.9805,383.498)"><path
             d="m 0,0 1.683,-8.265 0.291,0.048 5.447,11.409 c 2.392,3.443 4.782,6.886 7.173,10.329 C 10.979,11.399 7.364,9.277 3.748,7.157 L -8.043,2.595 -8.14,2.337 0,0 z"
             style="fill:#222222;fill-opacity:1;fill-rule:nonzero;stroke:none"
             id="path154" /></g></g></g><text
       transform="matrix(0.98362462,-0.01485405,-0.01534961,-1.0164162,0,0)"
       id="text156"
       x="558.36755"
       y="-378.26758"
       style="font-size:11.80492687px"><tspan
         style="font-size:23.60971832px;font-variant:normal;font-weight:normal;font-stretch:normal;writing-mode:lr-tb;fill:#2d2c2e;fill-opacity:1;fill-rule:nonzero;stroke:none;font-family:Myriad Pro;-inkscape-font-specification:MyriadPro-Regular"
         sodipodi:role="line"
         id="tspan158"
         x="558.36755"
         y="-378.26758">analyse</tspan></text>
<text
       transform="scale(0.97691905,-1.0236263)"
       id="text160"
       x="576.33258"
       y="-533.3902"
       style="font-size:11.72302818px"><tspan
         style="font-size:23.44605637px;font-variant:normal;font-weight:normal;font-stretch:normal;writing-mode:lr-tb;fill:#2d2c2e;fill-opacity:1;fill-rule:nonzero;stroke:none;font-family:Myriad Pro;-inkscape-font-specification:MyriadPro-Regular"
         sodipodi:role="line"
         id="tspan164"
         x="576.33258"
         y="-533.3902">collect</tspan></text>
<text
       transform="scale(0.97691902,-1.0236263)"
       id="text160-1"
       x="298.35059"
       y="-369.5206"
       style="font-size:11.72302818px"><tspan
         style="font-size:23.44605637px;font-variant:normal;font-weight:normal;font-stretch:normal;writing-mode:lr-tb;fill:#2d2c2e;fill-opacity:1;fill-rule:nonzero;stroke:none;font-family:Myriad Pro;-inkscape-font-specification:MyriadPro-Regular"
         sodipodi:role="line"
         id="tspan164-4"
         x="298.35059"
         y="-369.5206">define</tspan></text>
</g></svg>