Labor;Jahr des Messungen;Probe;14C Date;Uncertainty;Location;Fraktion;d13c;Radiokarbonalter;PQ;Jahr der Ausgrabung;Schicht;Bemerkung
Zweites Physikalisches Institut der Universität Heidelberg;1972;H3443-2843;3585;65;Vc - Haus 1 - Raum 1;Holzkohle;-23.2;3585 ± 65 BP;Büyükkale z/17;1964;Vc;Verkohlte Brettertür auf Fußboden
Zweites Physikalisches Institut der Universität Heidelberg;1972;H3444-2844;3565;75;Vc - Haus 1 - Raum 1;Holzkohle;-25.9;3565 ± 75 BP;Büyükkale z/17;1964;Vc;Verkohlte Brettertür auf Fußboden
Zweites Physikalisches Institut der Universität Heidelberg;1972;H3445-2845;3560;75;Vc - Haus 1 - Raum 2;Holzkohle;-23;3560 ± 75 BP;Büyükkale z/17;1964;Vc;Überreste von verkohlter Deckenkonstruktion auf Fußboden
Zweites Physikalisches Institut der Universität Heidelberg;1972;H3446-2860;3620;60;Vc - Haus 1 - Raum 4;Holzkohle;-24.5;3620 ± 60 BP;Büyükkale y-z/17;1964;Vc;Verkohlte Brettertür auf Fußboden
