ID;Typ;Preservation;Capacity in l;Dop in cm;Dmin in cm;Dmax in cm;Dbase in cm;Height in cm;Stratigraphie;Origin;Reference;Reference_number;
Bo10-81-1703;Bottle;Whole profile;2.5;3.6;2.3;19.9;6.6;23.1;Floor;Gebäude 82;;;
Bo11-57-529;Deep bowl;Whole profile;7.52;30.28;30.28;32;6.16;18.22;Floor;Gebäude 82;;;
Bo10-81-412;Deep bowl;Whole profile;18.57;36.5;36.5;42.04;14.35;29.58;Floor;Gebäude 82;Strupler 2011;56 Abb. 32f;
Bo11-57-621;Open tubular-spouted jug;Whole profile;2.21;15.31;15.31;18.98;2.04;15.87;Floor;Gebäude 82;;;
Bo11-57-532;Closed Tubular-spouted jug;Whole profile;2.62;6.75;6.75;18.87;7.45;21.35;Floor;Gebäude 82;;;
Bo10-81-417;Beak-spouted jug;Whole profile;5.34;6.1;4.72;25.11;8.88;30.86;Floor;Gebäude 82;;;
Bo10-81-418;Beak-spouted jug;Whole profile;6.45;5.86;3.58;25.73;9.61;32.57;Floor;Gebäude 82;Strupler 2011;55 Abb. 31H; 
Bo11-57-557;Beak-spouted jug;Whole profile;5.01;6.97;4.89;26.53;8.6;29.35;Floor;Gebäude 82;Schachner 2012;90  Abb. 8;
Bo11-57-530;Beak-spouted storage vessel;Whole profile;30.03;12.75;8.58;38.75;6.38;54.93;Floor;Gebäude 82;;;
Bo11-57-504;Beak-spouted storage vessel;Whole profile;112.7;21.28;19.32;60.9;19.32;75.31;Floor;Gebäude 82;;;
Bo11-57-528;Beak-spouted storage vessel;Whole profile;104.43;20.32;16.77;59.03;15.81;72.1;Floor;Gebäude 82;;;
Bo11-57-531;Pot;Whole profile;10.59;21.45;16.61;31.71;10.49;26.93;Floor;Gebäude 82;;;
Bo09-204-456;Pot;Whole profile;12.02;25.74;18.6;28.57;7.44;36.6;Floor;Gebäude 82;Schachner 2010;171 Abb. 18;
Bo10-81-433;Pot;Whole profile;12.71;22.97;16.41;30.41;8.33;33.82;Floor;Gebäude 82;;;
Bo11-57-555;Pot;Whole profile;16.52;19.85;14.25;33.04;2.45;38.8;Floor;Gebäude 82;;;
Bo10-81-297;Pot;Whole profile;20.4;24.75;16.8;33.78;6.68;41.73;Floor;Gebäude 82;;;
Bo10-94-421;Pot;Whole profile;21.51;19.84;13.91;35.39;7.36;49.2;Floor;Gebäude 82;;;
Bo11-57-556;Pot;Whole profile;23.26;24.37;17.38;35.33;3.21;45.81;Floor;Gebäude 82;Schachner 2012;90 Abb. 9;
Bo11-57-561;Storage vessel;Whole profile;63.51;42.48;42.48;50.88;12.48;55.68;Floor;Gebäude 82;;;
Bo10-81-460;Beaker;Whole profile;0.21;9.73;9.02;10.69;0;4.96;Floor;Gebäude 82;;;
Bo10-81-434;Closed Tubular-spouted jug;Whole profile;0.21;3.98;1.22;11.22;3.98;12.45;Floor;Gebäude 82;;;
Bo10-81-395;Flat bowl;Whole profile;0.96;15.44;15.44;17.13;4.56;8.89;Floor;Gebäude 82;;;
v/1014;Deep bowl;Whole profile;23.1;38.7;38.7;44.9;14;27.6;Floor;Gebäude 80;Orthmann 1984;132;
v/1396;Deep bowl;Whole profile;25.9;37;37;42.8;14.9;35.9;Floor;Gebäude 80;Orthmann 1984;133;
v/493;Deep bowl;Whole profile;16;31.6;31.6;39.4;21.3;38;Floor;Gebäude 80;Orthmann 1984;134;
v/494;Deep bowl;Whole profile;16.4;34.2;34.2;34;19;38.8;Floor;Gebäude 80;Orthmann 1984;135;
w/510;Deep bowl;Whole profile;44.2;51.1;51.1;56.1;14.6;38.7;Floor;Gebäude 80;Orthmann 1984;136;
w/500;Deep bowl;Whole profile;70.3;61.8;61.8;66.8;12.4;48;Floor;Gebäude 80;Orthmann 1984;137;
v/468;Deep bowl;Whole profile;31;51;51;51;18.5;32.8;Floor;Gebäude 80;Orthmann 1984;138;
w/501;Deep bowl;Whole profile;11.3;31.4;31.4;35.3;9.5;26.6;Floor;Gebäude 80;Orthmann 1984;139;
w/506;Deep bowl;Whole profile;14.4;36.2;36.2;40.4;10.6;27.7;Floor;Gebäude 80;Orthmann 1984;140;
v/467;Deep bowl;Whole profile;16.2;36.3;36.3;41.3;;29.1;Floor;Gebäude 80;Orthmann 1984;141;
v/466;Deep bowl;Whole profile;9.6;27.2;27.2;31.6;;28.5;Floor;Gebäude 80;Orthmann 1984;142;
v/447;Deep bowl;Whole profile;9;26.8;26.8;31.5;;21;Floor;Gebäude 80;Orthmann 1984;143;
v/1003;Open tubular-spouted jug;Whole profile;1.7;11.4;11.3;17.1;3.5;17.1;Floor;Gebäude 80;Orthmann 1984;144;
v/1012;Open tubular-spouted jug;Whole profile;2.3;15.4;15.4;20.1;7.8;17.3;Floor;Gebäude 80;Orthmann 1984;145;
v/483;Open tubular-spouted jug;Whole profile;0.6;6.1;6.1;13.6;2;14.3;Floor;Gebäude 80;Orthmann 1984;146;
w/517;Open tubular-spouted jug;Whole profile;1.8;15.8;15.8;19.2;0;14.6;Floor;Gebäude 80;Orthmann 1984;147;
v/1002;Open tubular-spouted jug;Whole profile;2.1;16.8;16.8;19.6;0;15;Floor;Gebäude 80;Orthmann 1984;148;
v/1001;Closed Tubular-spouted jug;Whole profile;4;5.1;5.1;21.3;7.1;27;Floor;Gebäude 80;Orthmann 1984;149;
v/1007;Closed Tubular-spouted jug;Whole profile;4.2;6.4;6.4;22;8.5;24.4;Floor;Gebäude 80;Orthmann 1984;150;
v/1005;Closed Tubular-spouted jug;Whole profile;4.2;9.1;9.1;23.1;8.4;23.7;Floor;Gebäude 80;Orthmann 1984;151;
v/1006;Closed Tubular-spouted jug;Whole profile;4.1;8.3;8.3;22.1;9.1;25;Floor;Gebäude 80;Orthmann 1984;152;
v/1000;Beak-spouted jug;Whole profile;3.3;4.9;2.5;23;8.1;30.4;Floor;Gebäude 80;Orthmann 1984;153;
N.I.;Beak-spouted jug;Whole profile;6.9;8.4;6.7;25;8.9;34.1;Floor;Gebäude 80;Orthmann 1984;154;
N.I.;Beak-spouted jug;Frgmt;;;;;;;Floor;Gebäude 80;Orthmann 1984;155;
z/154;Beak-spouted jug;Frgmt;;;;;;;Floor;Gebäude 80;Orthmann 1984;156;
N.I.;Beak-spouted storage vessel;Frgmt;;;;;;;Floor;Gebäude 80;Orthmann 1984;163;
w/520;Beak-spouted storage vessel;Whole profile;40.3;11.5;11.5;43.3;10;58.6;Floor;Gebäude 80;Orthmann 1984;164;
v/496;Beak-spouted storage vessel;Whole profile;37;12.4;10.5;41.8;7.2;60;Floor;Gebäude 80;Orthmann 1984;165;
w/519;Beak-spouted storage vessel;Whole profile;31.4;11.2;11.2;40.3;8.2;56.4;Floor;Gebäude 80;Orthmann 1984;166;
v/491;Jar;Whole profile;0.4;6.7;5;9.7;1;19.4;Floor;Gebäude 80;Orthmann 1984;167;
v/1062;Jar;Whole profile;0.6;4.8;3.1;10.8;1;20.8;Floor;Gebäude 80;Orthmann 1984;168;
w/507;Jar;Whole profile;17.8;10.6;8.1;34.7;0.5;41.1;Floor;Gebäude 80;Orthmann 1984;169;
N.I.;Jar;Whole profile;30.4;11.5;7.5;36.9;8.3;62.9;Floor;Gebäude 80;Orthmann 1984;170;
v/460;Pot;Whole profile;6;0;13.6;23.8;4.4;29.1;Floor;Gebäude 80;Orthmann 1984;171;
N.I.;Jar;Whole profile;8.3;10.1;8.6;26.1;5.6;33;Floor;Gebäude 80;Orthmann 1984;172;
v/490;Pot;Whole profile;3.5;14.5;14.5;22;11.8;18.9;Floor;Gebäude 80;Orthmann 1984;173;
v/469;Pot;Whole profile;15;27.4;23.3;34.2;6.2;32.8;Floor;Gebäude 80;Orthmann 1984;174;
w/515;Pot;Whole profile;18;28.2;28.2;36.7;15.8;31.9;Floor;Gebäude 80;Orthmann 1984;175;
w/516;Pot;Whole profile;2.6;13;11.5;18.9;5.5;18.6;Floor;Gebäude 80;Orthmann 1984;177;
v/444;Pot;Whole profile;8.6;19.8;18.5;26.9;1.5;30.3;Floor;Gebäude 80;Orthmann 1984;178;
v/497;Pot;Whole profile;14.4;20.2;16.3;31.3;5;36.7;Floor;Gebäude 80;Orthmann 1984;179;
w/511;Pot;Whole profile;12.9;0;15.2;29.2;1;37.2;Floor;Gebäude 80;Orthmann 1984;180;
w/513;Pot;Whole profile;20.4;25;22;34.7;8.6;42.6;Floor;Gebäude 80;Orthmann 1984;181;
w/508;Pot;Whole profile;17.1;23;18.2;31.8;8.5;43.2;Floor;Gebäude 80;Orthmann 1984;183;
w/512;Pot;Whole profile;20.6;23.2;18.6;34.8;8.7;46.6;Floor;Gebäude 80;Orthmann 1984;184;
v/1015;Pot;Whole profile;20.1;27.7;19.2;36;5.4;39.8;Floor;Gebäude 80;Orthmann 1984;185;
N.I.;Pot;Frgmt;;;;;;;Floor;Gebäude 80;Orthmann 1984;186;
v/472;Storage vessel;Frgmt;;;;;;;Floor;Gebäude 80;Orthmann 1984;187;
N.I.;Storage vessel;Frgmt;;;;;;;Floor;Gebäude 80;Orthmann 1984;188;
w/509;Storage vessel;Whole profile;38.1;45.4;45.4;49.9;15.9;43;Floor;Gebäude 80;Orthmann 1984;190;
N.I.;Storage vessel;Whole profile;35.6;33.1;33.1;44.3;9.4;51.8;Floor;Gebäude 80;Orthmann 1984;191;
62/137;Beaker;Whole profile;0.1;7.9;4.1;7.9;2.2;12.4;Floor;Gebäude 80;Orthmann 1984;204;
62/136;Beaker;Whole profile;0.2;7.8;4.9;7.8;2.1;12.3;Floor;Gebäude 80;Orthmann 1984;205;
w/524;Beaker;Whole profile;0.1;7.3;4.6;7.3;1.8;10.6;Floor;Gebäude 80;Orthmann 1984;206;
w/525;Beaker;Frgmt;;;;;;;Floor;Gebäude 80;Orthmann 1984;207;
62/138;Beaker;Whole profile;0.1;4.6;4.6;6.4;0.5;9.9;Floor;Gebäude 80;Orthmann 1984;208;
62/139;Beaker;Whole profile;0.1;6.1;6.1;6.1;2;19.7;Floor;Gebäude 80;Orthmann 1984;211;
62/143;Beaker;Whole profile;0.2;5.5;5.6;8.5;0.5;10.5;Floor;Gebäude 80;Orthmann 1984;212;
Fischer-659;Large storage vessel;Whole profile;1197.8;56.4;52;136.5;15;169.1;Floor;Pithosgebäude;Fischer 1963;659;
Fischer-660;Large storage vessel;Whole profile;1085.7;58.2;49.2;132.3;19.2;162.4;Floor;Pithosgebäude;Fischer 1963;660;
Fischer-661;Large storage vessel;Whole profile;1455.5;50.5;53.6;167.2;20;150;Floor;Pithosgebäude;Fischer 1963;661;
Fischer-662;Large storage vessel;Whole profile;1069.5;43.3;42.6;132.4;14.9;156;Floor;Pithosgebäude;Fischer 1963;662;
Fischer-663;Large storage vessel;Whole profile;1571.9;47.1;50;158.7;21;171.4;Floor;Pithosgebäude;Fischer 1963;663;
Fischer-664;Large storage vessel;Whole profile;1433.1;49.3;49.3;145.6;25.7;181.3;Floor;Pithosgebäude;Fischer 1963;664;
Fischer-665;Large storage vessel;Whole profile;1190.2;42.1;39.5;139.6;19.1;160.7;Floor;Pithosgebäude;Fischer 1963;665;
Fischer-666;Large storage vessel;Whole profile;1081.3;56.6;51.1;132.9;20.3;151;Floor;Pithosgebäude;Fischer 1963;666;
